^C:\USERS\DUMITRU COSMIN\SOURCE\REPOS\TEMA1\TEMA1\MAIN.CPP
/c /ZI /nologo /W3 /WX- /diagnostics:classic /sdl /Od /Oy- /D _MBCS /Gm- /EHsc /RTC1 /MDd /GS /fp:precise /permissive- /Zc:wchar_t /Zc:forScope /Zc:inline /Fo"DEBUG\\" /Fd"DEBUG\VC141.PDB" /Gd /TP /analyze- /FC C:\USERS\DUMITRU COSMIN\SOURCE\REPOS\TEMA1\TEMA1\MAIN.CPP
^C:\USERS\DUMITRU COSMIN\SOURCE\REPOS\TEMA1\TEMA1\VEHICLE.CPP
/c /ZI /nologo /W3 /WX- /diagnostics:classic /sdl /Od /Oy- /D _MBCS /Gm- /EHsc /RTC1 /MDd /GS /fp:precise /permissive- /Zc:wchar_t /Zc:forScope /Zc:inline /Fo"DEBUG\\" /Fd"DEBUG\VC141.PDB" /Gd /TP /analyze- /FC C:\USERS\DUMITRU COSMIN\SOURCE\REPOS\TEMA1\TEMA1\VEHICLE.CPP
^C:\USERS\DUMITRU COSMIN\DESKTOP\CLOUD COMPUTING\TEMA1\TEMA1\VEHICLE.CPP
/c /ZI /nologo /W3 /WX- /diagnostics:classic /sdl /Od /Oy- /D _MBCS /Gm- /EHsc /RTC1 /MDd /GS /fp:precise /permissive- /Zc:wchar_t /Zc:forScope /Zc:inline /Fo"DEBUG\\" /Fd"DEBUG\VC141.PDB" /Gd /TP /analyze- /FC C:\USERS\DUMITRU COSMIN\DESKTOP\CLOUD COMPUTING\TEMA1\TEMA1\VEHICLE.CPP
^C:\USERS\DUMITRU COSMIN\DESKTOP\CLOUD COMPUTING\TEMA1\TEMA1\MAIN.CPP
/c /ZI /nologo /W3 /WX- /diagnostics:classic /sdl /Od /Oy- /D _MBCS /Gm- /EHsc /RTC1 /MDd /GS /fp:precise /permissive- /Zc:wchar_t /Zc:forScope /Zc:inline /Fo"DEBUG\\" /Fd"DEBUG\VC141.PDB" /Gd /TP /analyze- /FC C:\USERS\DUMITRU COSMIN\DESKTOP\CLOUD COMPUTING\TEMA1\TEMA1\MAIN.CPP
